…
```r
city_regressions <- hxd %>% 
                     group_by(city) %>% 
                     do(tidy(lm(ve_L ~ hr + I(hr^2), .)))
city_regressions
```

```
## # A tibble: 21 x 6
## # Groups:   city [7]
##    city         term         estimate std.error statistic  p.value
##    <chr>        <chr>           <dbl>     <dbl>     <dbl>    <dbl>
##  1 Auckland     (Intercept)  42.3      6.64         6.37  2.00e-10
##  2 Auckland     hr           -0.960    0.107       -8.97  4.15e-19
##  3 Auckland     I(hr^2)       0.00726  0.000425    17.1   6.47e-64
##  4 Christchurch (Intercept)  13.4      5.46         2.45  1.42e- 2
##  5 Christchurch hr           -0.360    0.0954      -3.78  1.61e- 4
##  6 Christchurch I(hr^2)       0.00469  0.000413    11.4   1.65e-29
##  7 Copenhagen   (Intercept)   1.65     2.81         0.588 5.56e- 1
##  8 Copenhagen   hr           -0.116    0.0485      -2.39  1.66e- 2
##  9 Copenhagen   I(hr^2)       0.00351  0.000205    17.1   1.10e-64
## 10 Delhi        (Intercept) -32.8      2.87       -11.4   5.06e-30
## # … with 11 more rows
```
…
